%YAML 1.1
%TAG !u! tag:unity3d.com,2011:
--- !u!114 &11400000
MonoBehaviour:
  m_ObjectHideFlags: 0
  m_PrefabParentObject: {fileID: 0}
  m_PrefabInternal: {fileID: 0}
  m_GameObject: {fileID: 0}
  m_Enabled: 1
  m_EditorHideFlags: 0
  m_Script: {fileID: 11500000, guid: 55fb3b4fb432047118f0fd1d3ef3d5f9, type: 3}
  m_Name: Default Armour
  m_EditorClassIdentifier: 
  itemName: Normal Clothes
  description: 
  cost: 0
  shopImage: {fileID: 21300000, guid: cf5a4c97896d50c42b89214c3f4addb2, type: 3}
  sprites:
  - itemName: Chest
    meshToUse: {fileID: 11400000, guid: ee2a9e2c485b1214cad78a09f5645df7, type: 2}
    additionalItems: []
  - itemName: Right Arm
    meshToUse: {fileID: 11400000, guid: d517b8c2dfcd2f84f9d01443bbe495b1, type: 2}
    additionalItems: []
  - itemName: Right Hand
    meshToUse: {fileID: 11400000, guid: 5b8af007512e3a1429216eae27516db4, type: 2}
    additionalItems: []
  - itemName: Left Arm
    meshToUse: {fileID: 11400000, guid: cdcb977d8943f414c9d039af62ecb64d, type: 2}
    additionalItems: []
  - itemName: Left Hand
    meshToUse: {fileID: 11400000, guid: 852c7533a8a11dc439662d248245ac08, type: 2}
    additionalItems: []
  - itemName: Right Leg
    meshToUse: {fileID: 11400000, guid: f41d1d5ba77182046aeee7949713f66f, type: 2}
    additionalItems: []
  - itemName: Right Foot
    meshToUse: {fileID: 11400000, guid: a6716d7fe847665498422a964d1e025d, type: 2}
    additionalItems: []
  - itemName: Left Leg
    meshToUse: {fileID: 11400000, guid: 58d239dbe83c9024dad0a801edc18a7b, type: 2}
    additionalItems: []
  - itemName: Left Foot
    meshToUse: {fileID: 11400000, guid: f3eebc53edecff549860bd4b47593130, type: 2}
    additionalItems: []
  attributes:
  - attributeName: Hit Points
    value: 5
